H:\Sofdev\OxProgramOOP\src\main\java\com\mesaya\oxprogramoop\Game.java
H:\Sofdev\OxProgramOOP\src\main\java\com\mesaya\oxprogramoop\Table.java
H:\Sofdev\OxProgramOOP\src\main\java\com\mesaya\oxprogramoop\MainProgram.java
H:\Sofdev\OxProgramOOP\src\main\java\com\mesaya\oxprogramoop\Player.java
